clustering
…
set.seed(1)
#% LABELED
cls <- which(colnames(iris) == "Species")

labeled.index <- createDataPartition(data$Species, p = .2, list = FALSE)
data[-labeled.index,cls] <- NA

For example, we can train with Constrained Kmeans:

m <- constrained_kmeans() %>% fit(Species ~ ., data)

Labels:

m %>% cluster_labels()
#> # A tibble: 150 x 1
#>    .pred_class
#>    <fct>      
#>  1 1          
#>  2 1          
#>  3 1          
#>  4 1          
#>  5 1          
#>  6 1          
#>  7 1          
#>  8 1          
#>  9 1          
#> 10 1          
#> # ... with 140 more rows
…
